,year,title,reviews,url,tomatometer,audience_score,synopsis,rating,genre,original_language,director,producer,writer,release_date_theaters,release_date_streaming,runtime_mins,distributor,production_co,aspect_ratio
0,2020,One Night in Miami (2020),333,https://www.rottentomatoes.com/m/one_night_in_miami,0.98,0.79,"On one incredible night in 1964, four icons of sports, music, and activism gathered to celebrate one of the biggest upsets in boxing history. When underdog Cassius Clay, soon to be called Muhammad Ali, (Eli Goree), defeats heavy weight champion Sonny Liston at the Miami Convention Hall, Clay memorialized the event with three of his friends: Malcolm X (Kingsley Ben-Adir), Sam Cooke (Leslie Odom Jr.) and Jim Brown (Aldis Hodge).",R (Language Throughout),",,Drama,,",English,Regina King,"Jessica Calder,Keith Calder,Jody Klein",Kemp Powers,2020-12-25,2021-01-15,110,Amazon Studios,,Scope (2.35:1)
1,2020,Da 5 Bloods (2020),303,https://www.rottentomatoes.com/m/da_5_bloods,0.92,0.54,Four African American vets battle the forces of man and nature when they return to Vietnam seeking the remains of their fallen squad leader and the gold fortune he helped them hide.,R (Grisly Images|Strong Violence|Pervasive Language),",,Drama,,,War,,",English,Spike Lee,"Spike Lee,Beatriz Levin,Lloyd Levin,Jon Kilik",Spike Lee,,2020-06-13,155,,Dolby Atmos,
2,2020,Hamilton (2020),199,https://www.rottentomatoes.com/m/hamilton_2020,0.97,0.9,"The original Broadway production of the award-winning musical that tells the story of Alexander Hamilton, first secretary of the treasury, blending hip-hop, jazz, R&B and Broadway styles, filmed from the Richard Rogers Theater in New York.",PG-13 (Language|Some Suggestive Material),",,Musical,,",English,Thomas Kail,"Thomas Kail,Lin-Manuel Miranda",Ron Chernow,,2020-07-03,160,,Dolby Atmos,Flat (1.85:1)
3,2020,Palm Springs (2020),243,https://www.rottentomatoes.com/m/palm_springs_2020,0.95,0.88,"Stuck in a time loop, two wedding guests develop a budding romance while living the same day over and over again.",R (Sexual Content|Language Throughout|Drug Use|Some Violence),",,Romance,,",English,Max Barbakow,"Chris Parker,Andy Samberg,Akiva Schaffer,Dylan Sellers,Becky Sloviter,Jorma Taccone",Andy Siara,2020-07-10,2020-07-10,90,Hulu,,Scope (2.35:1)
4,2020,Promising Young Woman (2020),402,https://www.rottentomatoes.com/m/promising_young_woman,0.9,0.88,"Nothing in Cassie's life is what it appears to be -- she's wickedly smart, tantalizingly cunning, and she's living a secret double life by night. Now, an unexpected encounter is about to give Cassie a chance to right the wrongs from the past.",R (Language Throughout|Drug Use|Sexual Assault|Some Sexual Material|Strong Violence),",,Comedy,,,Mystery & thriller,,",English,Emerald Fennell,"Margot Robbie,Josey McNamara,Tom Ackerley,Ben Browning,Ashley Fox,Emerald Fennell",Emerald Fennell,2020-12-25,2021-01-15,113,Focus Features,Dolby Atmos,Scope (2.35:1)
5,2020,Wolfwalkers (2020),162,https://www.rottentomatoes.com/m/wolfwalkers,0.99,0.98,"In a time of superstition and magic, a young apprentice hunter, Robyn Goodfellowe, journeys to Ireland with her father to wipe out the last wolf pack. While exploring the forbidden lands outside the city walls, Robyn befriends a free-spirited girl, Mebh, a member of a mysterious tribe rumored to have the ability to transform into wolves by night. As they search for Mebh's missing mother, Robyn uncovers a secret that draws her further into the enchanted world of the ""Wolfwalkers"" and risks turning into the very thing her father is tasked to destroy.",PG (Scary Images|Peril|Brief Language|Sequences of Violence|Some Thematic Elements),",,Adventure,,,Animation,,,Fantasy,,",English,"Tomm Moore,Ross Stewart","Tomm Moore,Stéphan Roelants,Nora Twomey,Paul Young",Will Collins,2020-11-13,2020-12-11,103,GKIDS,,Flat (1.85:1)
6,2020,Sound of Metal (2020),275,https://www.rottentomatoes.com/m/sound_of_metal,0.97,0.9,"During a series of adrenaline-fueled one-night gigs, itinerant punk-metal drummer Ruben (Riz Ahmed) begins to experience intermittent hearing loss. When a specialist tells him his condition will rapidly worsen, he thinks his music career — and with it his life — is over. His bandmate and girlfriend Lou (Olivia Cooke) checks the recovering heroin addict into a secluded sober house for the deaf in hopes it will prevent a relapse and help him learn to adapt to his new situation. But after being welcomed into a community that accepts him just as he is, Ruben has to choose between his equilibrium and the drive to reclaim the life he once knew. Utilizing startling, innovative sound design techniques, director Darius Marder takes audiences inside Ruben’s experience to vividly recreate his journey into a rarely examined world.",R (Language Throughout|Brief Nude Images),",,Drama,,,Music,,",English,Darius Marder,"Sacha Ben Harroche,Bert Hamelinck","Darius Marder,Abraham Marder",2020-11-20,2020-12-04,120,Amazon Studios,,Scope (2.35:1)
7,2020,The Invisible Man (2020),411,https://www.rottentomatoes.com/m/the_invisible_man_2020,0.91,0.88,"After staging his own suicide, a crazed scientist uses his power to become invisible to stalk and terrorize his ex-girlfriend. When the police refuse to believe her story, she decides to take matters into her own hands and fight back.",R (Some Strong Bloody Violence|Language),",,Horror,,,Mystery & thriller,,",English,Leigh Whannell,"Jason Blum,Kylie Du Fresne",Leigh Whannell,2020-02-28,2020-03-20,124,Universal Pictures,Dolby Atmos,Scope (2.35:1)
8,2020,Never Rarely Sometimes Always (2020),233,https://www.rottentomatoes.com/m/never_rarely_sometimes_always,0.99,0.51,"Faced with an unintended pregnancy and a lack of local support, Autumn and her cousin, Skylar, travel across state lines to New York City on a fraught journey of friendship, bravery and compassion.",PG-13 (Language|Disturbing Thematic Content|Mature Thematic Content|Some Sexual References|Teen Drinking),",,Drama,,",English,Eliza Hittman,"Lia Buman,Rose Garnett,Tim Headington,Sara Murphy,Alex Orlovsky,Elika Portnoy,Adele Romanski",Eliza Hittman,2020-03-13,2020-04-03,101,Focus Features,,Flat (1.85:1)
9,2020,1917 (2020),460,https://www.rottentomatoes.com/m/1917_2019,0.89,0.88,"During World War I, two British soldiers -- Lance Cpl. Schofield and Lance Cpl. Blake -- receive seemingly impossible orders. In a race against time, they must cross over into enemy territory to deliver a message that could potentially save 1,600 of their fellow comrades -- including Blake's own brother.",R (Some Disturbing Images|Language|Violence),",,War,,,History,,,Drama,,",English,Sam Mendes,"Sam Mendes,Pippa Harris,Callum McDougall,Brian Oliver","Sam Mendes,Krysty Wilson-Cairns",2020-01-10,2019-12-25,119,Universal Pictures,Dolby Atmos,Scope (2.35:1)
10,2020,Soul (2020),342,https://www.rottentomatoes.com/m/soul_2020,0.95,0.88,"Joe is a middle-school band teacher whose life hasn't quite gone the way he expected. His true passion is jazz -- and he's good. But when he travels to another realm to help someone find their passion, he soon discovers what it means to have soul.",PG (Thematic Elements|Some Language),",,Kids & family,,,Adventure,,,Comedy,,,Animation,,",English,Pete Docter,Dana Leigh Murray,"Pete Docter,Mike Jones,Kemp Powers",,2020-12-25,100,,Dolby Atmos,Scope (2.35:1)
11,2020,Minari (2020),309,https://www.rottentomatoes.com/m/minari,0.98,0.87,"A tender and sweeping story about what roots us, Minari follows a Korean-American family that moves to a tiny Arkansas farm in search of their own American Dream. The family home changes completely with the arrival of their sly, foul-mouthed, but incredibly loving grandmother. Amidst the instability and challenges of this new life in the rugged Ozarks, Minari shows the undeniable resilience of family and what really makes a home.",PG-13 (Some Thematic Elements|A Rude Gesture),",,Drama,,",English,Lee Isaac Chung,"Dede Gardner,Jeremy Kleiner,Christina Oh",Lee Isaac Chung,2021-02-12,2021-02-26,115,A24,,
12,2020,Ma Rainey's Black Bottom (2020),299,https://www.rottentomatoes.com/m/ma_raineys_black_bottom,0.98,0.73,"Tensions and temperatures rise over the course of an afternoon recording session in 1920s Chicago as a band of musicians await trailblazing performer, the legendary “Mother of the Blues,” Ma Rainey (Academy Award® winner Viola Davis). Late to the session, the fearless, fiery Ma engages in a battle of wills with her white manager and producer over control of her music. As the band waits in the studio’s claustrophobic rehearsal room, ambitious cornet player Levee (Chadwick Boseman) — who has an eye for Ma’s girlfriend and is determined to stake his own claim on the music industry — spurs his fellow musicians into an eruption of stories revealing truths that will forever change the course of their lives.",R (Some Sexual Content|Language|Brief Violence),",,Drama,,,Music,,,History,,",English,George C. Wolfe,"Todd Black,Denzel Washington,Dany Wolf",Ruben Santiago-Hudson,2020-11-25,2020-12-18,94,Netflix,,Scope (2.35:1)
13,2020,Dick Johnson Is Dead (2020),90,https://www.rottentomatoes.com/m/dick_johnson_is_dead,1.0,0.78,A filmmaker and her elderly father stage his death in various ways to help them face his inevitable demise.,PG-13 (Macabre Images|Thematic Elements),",,Documentary,,",English,Kirsten Johnson,"Katy Chevigny,Marilyn Ness","Kirsten Johnson,Nels Bangerter",,2020-10-02,89,,,
14,2020,Host (2020),90,https://www.rottentomatoes.com/m/host_2020,1.0,0.73,Six friends accidentally invite the attention of a demonic presence during an online séance and begin noticing strange occurrences in their homes.,,",,Mystery & thriller,,,Horror,,",English (United Kingdom),Rob Savage,,"Rob Savage,Gemma Hurley,Jed Shepherd",,2020-07-30,57,,,
15,2020,Portrait of a Lady on Fire (Portrait de la jeune fille en feu) (2020),322,https://www.rottentomatoes.com/m/portrait_of_a_lady_on_fire,0.98,0.92,In 1770 the young daughter of a French countess develops a mutual attraction to the female artist commissioned to paint her wedding portrait.,R (Some Nudity and Sexuality),",,Drama,,,Romance,,,History,,,Lgbtq+,,",French (France),Céline Sciamma,"Bénédicte Couvreur,Véronique Cayla",Céline Sciamma,2019-12-06,2020-04-03,121,Neon,Dolby Digital,Flat (1.85:1)
16,2020,Emma. (2020),255,https://www.rottentomatoes.com/m/emma_2020,0.87,0.72,"Beautiful, smart and wealthy, Emma Woodhouse navigates her way through misguided matches, romantic missteps and the challenges of growing up -- all to finally realize the love that has been there all along.",PG (Brief Partial Nudity),",,Drama,,,Romance,,,Comedy,,",English (United Kingdom),Autumn de Wilde,"Tim Bevan,Eric Fellner,Graham Broadbent,Peter Czernin",Eleanor Catton,2020-03-06,2020-03-20,125,Focus Features,Dolby Digital,Flat (1.85:1)
17,2020,"Yes, God, Yes (2020)",126,https://www.rottentomatoes.com/m/yes_god_yes,0.93,0.65,A Catholic girl finds herself having tempting thoughts after an AOL chat turns unexpectedly racy.,R (Sexual Content|Some Nudity),",,Comedy,,",English,Karen Maine,"Katie Cordeal,Colleen Hammond",Karen Maine,2020-07-24,2020-07-28,78,Vertical Entertainment,,
18,2020,The White Tiger (2020),170,https://www.rottentomatoes.com/m/the_white_tiger_2020,0.91,0.8,"Balram Halwai (Adarsh Gourav) narrates his epic and darkly humorous rise from poor villager to successful entrepreneur in modern India. Cunning and ambitious, our young hero jockeys his way into becoming a driver for Ashok (Rajkummar Rao) and Pinky (Priyanka Chopra-Jonas), who have just returned from America. Society has trained Balram to be one thing -- a servant -- so he makes himself indispensable to his rich masters. But after a night of betrayal, he realizes the corrupt lengths they will go to trap him and save themselves. On the verge of losing everything, Balram rebels against a rigged and unequal system to rise up and become a new kind of master. Based on the New York Times bestseller and 2008 Man Booker Prize-winning novel.",R (Language|Violence|Sexual Material),",,Drama,,",Hindi,Ramin Bahrani,"Ramin Bahrani,Mukul Deora",Ramin Bahrani,2021-01-13,2021-01-22,126,,,Scope (2.35:1)
19,2020,Birds of Prey (And the Fantabulous Emancipation of One Harley Quinn) (2020),430,https://www.rottentomatoes.com/m/birds_of_prey_2020,0.79,0.78,"It's open season on Harley Quinn when her explosive breakup with the Joker puts a big fat target on her back. Unprotected and on the run, Quinn faces the wrath of narcissistic crime boss Black Mask, his right-hand man, Victor Zsasz, and every other thug in the city. But things soon even out for Harley when she becomes unexpected allies with three deadly women -- Huntress, Black Canary and Renee Montoya.",R (Some Sexual and Drug Material|Language Throughout|Strong Violence),",,Comedy,,,Action,,",English,Cathy Yan,"Margot Robbie,Bryan Unkeless,Sue Kroll",Christina Hodson,2020-02-07,2020-03-23,109,Warner Bros. Pictures,Dolby Atmos,Scope (2.35:1)
20,2020,Borat: Subsequent Moviefilm (2020),303,https://www.rottentomatoes.com/m/borat_subsequent_moviefilm,0.85,0.63,"Released from prison for bringing shame to his country, Kazakh funnyman Borat risks life and limb when he returns to America with his 15-year-old daughter.",R (Graphic Nudity|Strong Crude & Sexual Content|Language),",,Comedy,,",English,Jason Woliner,"Monica Levinson,Anthony Hines","Sacha Baron Cohen,Anthony Hines,Dan Swimer,Peter Baynham,Erica Rivinoja,Dan Mazer,Jena Friedman,Lee Kern",,2020-10-23,96,,,
21,2020,Slaxx (2020),69,https://www.rottentomatoes.com/m/slaxx,0.96,0.43,"A possessed pair of jeans is brought to life to punish the unscrupulous practices of a trendy clothing company. Shipped to the company's flagship store, Slaxx proceeds to wreak carnage on staff locked in overnight to set up the new collection.",,",,Horror,,,Comedy,,",English,Elza Kephart,"Patricia Gomez,Anne-Marie Gélinas","Patricia Gomez,Elza Kephart",,2021-03-18,77,,,
22,2020,Just Mercy (2020),306,https://www.rottentomatoes.com/m/just_mercy,0.85,0.99,"After graduating from Harvard, Bryan Stevenson heads to Alabama to defend those wrongly condemned or those not afforded proper representation. One of his first cases is that of Walter McMillian, who is sentenced to die in 1987 for the murder of an 18-year-old girl, despite evidence proving his innocence. In the years that follow, Stevenson encounters racism and legal and political maneuverings as he tirelessly fights for McMillian's life.",PG-13 (Thematic Content|Some Racial Epithets),",,Drama,,",English,Destin Daniel Cretton,"Gil Netter,Asher Goldstein,Michael B. Jordan","Destin Daniel Cretton,Andrew Lanham",2020-01-10,2019-12-25,136,Warner Bros. Pictures,Dolby Atmos,Flat (1.85:1)
23,2020,Love and Monsters (2020),108,https://www.rottentomatoes.com/m/love_and_monsters,0.94,0.89,"Seven years after the Monsterpocalypse, Joel Dawson, along with the rest of humanity, has been living underground ever since giant creatures took control of the land. After reconnecting over the radio with his high school girlfriend, Aimee, who is now 80 miles away at a coastal colony, Joel begins to fall for her again. As Joel realizes that there's nothing left for him underground, he decides to venture out to Aimee, despite all the dangerous monsters that stand in his way.",PG-13 (Some Suggestive Material|Language|Action/Violence),",,Adventure,,,Comedy,,,Fantasy,,",English,Michael Matthews,"Shawn Levy,Dan Cohen","Brian Duffield,Matthew Robinson",2020-10-16,2020-10-16,109,Paramount Pictures,,Scope (2.35:1)
24,2020,Zappa (2020),70,https://www.rottentomatoes.com/m/zappa_2020,0.96,0.79,"With unfettered access to the Zappa family trust and all archival footage, ZAPPA explores the private life behind the mammoth musical career that never shied away from the political turbulence of its time. Alex Winter’s assembly features appearances by Frank’s widow Gail Zappa and several of Frank’s musical collaborators including Mike Keneally, Ian Underwood, Steve Vai, Pamela Des Barres, Bunk Gardner, David Harrington, Scott Thunes, Ruth Underwood, Ray White and others.",,",,Biography,,,Documentary,,,Music,,",English,Alex Winter,"Jade Allen,Devorah DeVries,John Frizzell,Alex Winter,Ahmet Zappa,Glen Zipper",Alex Winter,2020-11-23,2020-11-27,129,Magnolia Pictures,,
25,2020,Kajillionaire (2020),206,https://www.rottentomatoes.com/m/kajillionaire,0.9,0.47,"Two con artists have spent 26 years training their only daughter to swindle, scam and steal at every turn. During a desperate and hastily conceived heist, they charm a stranger into joining them, only to have their entire world turned upside down.",R (Some Sexual References|Language),",,Drama,,,Comedy,,",English,Miranda July,"Dede Gardner,Youree Henley,Jeremy Kleiner",Miranda July,2020-09-25,2020-10-14,104,Focus Features,,Scope (2.35:1)
26,2020,The Boy Behind the Door (2020),62,https://www.rottentomatoes.com/m/the_boy_behind_the_door,0.97,0.73,"In The Boy Behind the Door, a night of unimaginable terror awaits twelve-year-old Bobby (Lonnie Chavis) and his best friend, Kevin (Ezra Dewey), when they are abducted on their way home from school. Managing to escape his confines, Bobby navigates the dark halls, praying his presence goes unnoticed as he avoids his captor at every turn. Even worse is the arrival of another stranger, whose mysterious arrangement with the kidnapper may spell certain doom for Kevin. With no means of calling for help and miles of dark country in every direction, Bobby embarks on a rescue mission, determined to get himself and Kevin out alive... or die trying.",,",,Horror,,,Mystery & thriller,,",English,"David Charbonier,Justin Powell","Ryan Lewis,John Hermann,Jim Hart,Ryan Scaringe,Rick Rosenthal","David Charbonier,Justin Powell",,2021-07-29,88,,,
27,2020,A Shaun the Sheep Movie: Farmageddon (2020),78,https://www.rottentomatoes.com/m/a_shaun_the_sheep_movie_farmageddon,0.96,0.8,"When a UFO crash-lands near Mossy Bottom Farm, it's up to Shaun the sheep and his animal friends to help a stranded extraterrestrial find its way home.",G,",,Comedy,,,Sci-fi,,,Animation,,,Kids & family,,,Adventure,,",English (United Kingdom),"Richard Phelan,Will Becher",Paul Kewley,"Mark Burton,Jon Brown",,2020-02-14,87,,"Dolby Atmos, DTS",Scope (2.35:1)
28,2020,The Human Voice (La Voz Humana) (2020),63,https://www.rottentomatoes.com/m/the_human_voice_2020,0.97,0.69,"A woman watches time passing next to the suitcases of her ex-lover -- who is supposed to come pick her up, and his dog. She and the dog, which doesn't understand that its master has abandoned it, wait for him.",R,",,Drama,,",Spanish (Spain),Pedro Almodóvar,,Pedro Almodóvar,2021-03-12,2021-05-02,30,Sony Classics,,
29,2020,Assassins (2020),42,https://www.rottentomatoes.com/m/assassins_2020,0.98,0.84,"The audacious murder of the brother of North Korea’s Supreme Leader Kim Jon Un in a crowded Malaysian airport sparked a worldwide media frenzy. At the center of the investigation are two young women who are either cold-blooded killers or unwitting pawns in a political assassination. ASSASSINS goes beyond the headlines to question every angle of this case, from human trafficking to geo-political espionage to the secretive dynamics of the North Korean dynasty.",,",,Documentary,,",English,Ryan White,"Jessica Hargrave,Ryan White",,2020-12-11,2021-01-15,104,Greenwich Entertainment,,
30,2020,Rocks (2020),64,https://www.rottentomatoes.com/m/rocks,0.97,0.78,A London teen takes care of her younger brother after their mother abruptly leaves.,,",,Drama,,",English (United Kingdom),Sarah Gavron,"Ameenah Ayub Allen,Faye Ward,Hannah Farrell","Claire Wilson,Theresa Ikoko",,2021-02-02,93,,,
31,2020,Spontaneous (2020),64,https://www.rottentomatoes.com/m/spontaneous,0.97,0.67,"When students in their high school inexplicably start to explode, seniors Mara and Dylan struggle to survive in a world where each moment may be their last. As an unexpected romance blossoms between them, they soon discover that when tomorrow is no longer promised, they can finally start living for today.",R (Teen Drug and Alcohol Use|Language|Bloody Images Throughout),",,Comedy,,,Horror,,",English,Brian Duffield,"Nicki Cortese,Brian Duffield,Matthew Kaplan,Jordan Levin",Brian Duffield,2020-10-02,2020-10-06,102,,,Scope (2.35:1)
32,2020,The Last Tree (2020),43,https://www.rottentomatoes.com/m/the_last_tree,0.98,0.65,"After growing up in quiet, rural Lincolnshire, teenager Femi struggles with unfamiliar surroundings and cultural differences when he moves in with his mother in London.",,",,Drama,,",English (United Kingdom),Shola Amoo,"Lee Thomas,Myf Hopkins",Shola Amoo,2020-06-26,2020-06-26,100,ArtMattan Films,,
33,2020,Fireball: Visitors from Darker Worlds (2020),43,https://www.rottentomatoes.com/m/fireball_visitors_from_darker_worlds,0.98,0.62,"A journey across the planet and universe explores how meteorites, shooting stars and deep impacts have awoken wonder about other realms -- and make people rethink their destinies.",,",,Documentary,,",English,"Werner Herzog,Clive Oppenheimer","André Singer,Lucki Stipetic",Werner Herzog,,2020-11-13,97,,,
34,2020,There Is No Evil (Sheytan vojud nadarad) (2020),43,https://www.rottentomatoes.com/m/there_is_no_evil,0.98,0.0,"Shot in secret and smuggled out of Iran, There is No Evil is an anthology film comprising four moral tales about men faced with a simple yet unthinkable choice -- to follow orders to enforce the death penalty, or resist and risk everything. Whatever they decide, it will directly or indirectly affect their lives, their relationships, and their consciences. Says director Mohammad Rasoulof: ""As responsible citizens, do we have a choice when enforcing the inhumane orders of despots? As human beings, to what extent are we to be held responsible for carrying out those orders? Where does the duality of love and moral responsibility leave us?"" Suspenseful, mysterious, and shot through with a sense of urgency, Rasoulof's film is an incisive look at the moral strength and inner humanity of its protagonists.",,",,Drama,,",Persian,Mohammad Rasoulof,"Kaveh Farnam,Farzad Pak,Mohammad Rasoulof",Mohammad Rasoulof,2021-05-14,2021-07-13,151,Kino Lorber,Dolby Digital,Scope (2.35:1)
35,2020,Make Up (2020),45,https://www.rottentomatoes.com/m/make_up_2020,0.98,0.0,A teen makes an unsettling discovery about her boyfriend that lures her into a spiral of obsession.,,",,Drama,,,Mystery & thriller,,",English (United Kingdom),Claire Oakley,Emily Morgan,Claire Oakley,2020-11-13,2020-12-15,86,Mutiny Pictures,,
36,2020,The Go-Go's (2020),45,https://www.rottentomatoes.com/m/the_go_gos,0.98,0.95,"The Go-Go's become the first successful, all-girl band to write their own songs and play their own instruments while making it to No. 1 on the charts.",,",,Documentary,,,Music,,",English,Alison Ellwood,"Trevor Birney,Eimhear O'Neill,Corey Russell",,,2020-07-31,98,,,
37,2020,Fourteen (2020),47,https://www.rottentomatoes.com/m/fourteen_2019,0.98,0.53,Two childhood friends weather life together with varying degrees of success.,,",,Drama,,",English,Dan Sallitt,Caitlin Mae Burke,Dan Sallitt,2020-05-15,2020-05-15,94,Grasshopper Film,,
38,2020,Sweat (2020),48,https://www.rottentomatoes.com/m/sweat_2020,0.98,0.81,"Beloved fitness influencer Sylwia seemingly has it made: hundreds of thousands of social media followers, endorsement deals, photo spreads in magazines. But as she starts to share more and more online, the rising pressure from concerned sponsors and increasingly obsessive fans forces her to confront her deepest insecurities and the exhaustive demands of her lifestyle.",,",,Drama,,",Polish,Magnus von Horn,Mariusz Wlodarski,Magnus von Horn,2021-06-18,2021-07-23,107,MUBI,,Scope (2.35:1)
39,2020,Babyteeth (2020),150,https://www.rottentomatoes.com/m/babyteeth,0.93,0.84,,,",,Comedy,,,Drama,,",English (Australia),Shannon Murphy,Alex White,Rita Kalnejais,,2020-06-18,117,,Dolby Digital,
40,2020,News of the World (2020),264,https://www.rottentomatoes.com/m/news_of_the_world,0.88,0.89,"Five years after the end of the Civil War, Capt. Jefferson Kyle Kidd crosses paths with a 10-year-old girl taken by the Kiowa people. Forced to return to her aunt and uncle, Kidd agrees to escort the child across the harsh and unforgiving plains of Texas. However, the long journey soon turns into a fight for survival as the traveling companions encounter danger at every turn -- both human and natural.",PG-13 (Some Language|Disturbing Images|Thematic Material|Violence),",,Drama,,,Adventure,,,Western,,",English,Paul Greengrass,"Gary Goetzman,Gail Mutrux,Gregory Goodman","Paul Greengrass,Luke Davies",2020-12-25,2021-01-15,118,Universal Pictures,"Dolby Atmos, Dolby Digital",Scope (2.35:1)
41,2020,Farewell Amor (2020),71,https://www.rottentomatoes.com/m/farewell_amor,0.97,0.69,"After 17 years apart, Angolan immigrant Walter is joined in the U.S. by his wife and teen daughter. Now absolute strangers sharing a one bedroom Brooklyn apartment, they struggle to overcome the emotional distance between them. Walter is trying to let go of a previous relationship while his wife Esther struggles with a new country, culture and a husband who seems distant. Their daughter Sylvia is a dancer just like her father, and while she also finds her new life difficult, she bravely starts to explore the city and show herself through dance. The film is both a universal immigrant story and the unique perspective of three characters bound together by history and hope. It is an intimate and deeply personal look at an inter-generational tale that has defined America since its inception.",,",,Drama,,",English,Ekwa Msangi,"Huriyyah Muhammad,Sam Bisbee,Josh Penn",Ekwa Msangi,2020-12-11,2020-12-11,101,IFC Films,,
42,2020,La Llorona (2020),94,https://www.rottentomatoes.com/m/la_llorona_2019,0.96,0.62,"Alma is murdered with her children during a military attack in Guatemala, but when the general who ordered the genocide is found not guilty 30 years later, Alma returns to the world of the living to torment the man.",,",,Drama,,,Horror,,,Mystery & thriller,,,Crime,,",Spanish,Jayro Bustamante,"Jayro Bustamante,Gustavo Matheu,Georges Renand,Marina Peralta","Jayro Bustamante,Lisandro Sanchez",,2020-08-06,97,,,Scope (2.35:1)
43,2020,The Dissident (2020),93,https://www.rottentomatoes.com/m/the_dissident,0.96,0.8,"When Washington Post journalist Jamal Khashoggi disappears after entering Saudi Arabia's consulate in Istanbul, his fiancée and dissidents around the world are left to piece together the clues to a brutal murder and expose a global cover-up perpetrated by the very country he loved.",PG-13 (Disturbing/Violent Material),",,Documentary,,",Arabic,Bryan Fogel,"Bryan Fogel,Thor Halvorssen,Mark Monroe,Jake Swantko","Bryan Fogel,Mark Monroe",2020-12-25,2021-01-08,119,Briarcliff Entertainment,,
44,2020,The Swerve (2020),53,https://www.rottentomatoes.com/m/the_swerve,0.98,0.62,A woman with a seemingly perfect life battles insomnia.,,",,Drama,,",English,Dean Kapsalis,Tommy Minnix,Dean Kapsalis,,2020-09-22,95,,,
45,2020,Enola Holmes (2020),204,https://www.rottentomatoes.com/m/enola_holmes,0.91,0.7,"While searching for her missing mother, intrepid teen Enola Holmes uses her sleuthing skills to outsmart big brother Sherlock and help a runaway lord.",PG-13 (Some Violence),",,Mystery & thriller,,",English,Harry Bradbeer,"Millie Bobby Brown,Paige Brown,Alex Garcia,Ali Mendes,Mary Parent",Nancy Springer,,2020-09-24,123,,,
46,2020,Apples (Mila) (2020),53,https://www.rottentomatoes.com/m/apples,0.98,0.0,,,",,Comedy,,,Drama,,",English,Christos Nikou,,,,,0,,,
47,2020,"Why Don't You Just Die! (Papa, sdokhni) (2020)",76,https://www.rottentomatoes.com/m/why_dont_you_just_die,0.97,0.0,,,,,,,,,,0,,,
48,2020,Bacurau (Nighthawk) (2020),165,https://www.rottentomatoes.com/m/bacurau,0.93,0.85,,,",,Mystery & thriller,,,Drama,,,Fantasy,,",Portuguese (Brazil),"Kleber Mendonça Filho,Juliano Dornelles","Saïd Ben Saïd,Emilie Lesclaux,Michel Merkt","Juliano Dornelles,Kleber Mendonça Filho",,2020-05-12,132,,,
49,2020,Saint Maud (2020),185,https://www.rottentomatoes.com/m/saint_maud,0.92,0.64,"The debut film from writer-director Rose Glass, Saint Maud is a chilling and boldly original vision of faith, madness, and salvation in a fallen world. Maud, a newly devout hospice nurse, becomes obsessed with saving her dying patient's soul -- but sinister forces, and her own sinful past, threaten to put an end to her holy calling.",R (Language|Disturbing and Violent Content|Sexual Content),",,Horror,,",English,Rose Glass,"Oliver Kassman,Andrea Cornwell",Rose Glass,2021-01-29,2021-02-12,84,A24,,Scope (2.35:1)
50,2020,Disclosure (2020),55,https://www.rottentomatoes.com/m/disclosure_2020_2,0.98,0.87,A look at Hollywood's depiction of transgender people and the impact of this on American culture.,,",,Documentary,,",English,Sam Feder,"Sam Feder,Amy Scholder",,,2020-06-19,100,,,
51,2020,Boys State (2020),144,https://www.rottentomatoes.com/m/boys_state,0.94,0.9,Texas teens learn about American democracy by organizing political parties and running a mock government.,PG-13 (Some Strong Language|Thematic Elements),",,Documentary,,",English,Jesse Moss,Jesse Moss,,2020-07-31,2020-08-14,109,,,
52,2020,Circus of Books (2020),59,https://www.rottentomatoes.com/m/circus_of_books,0.98,0.81,"In 1976 a couple take over an adult book store, and the store becomes the biggest distributor of gay porn in the United States.",,",,Lgbtq+,,,Documentary,,,Biography,,",English,Rachel Mason,"Adam Baran,Cynthia Childs,Camilla Hall,Kathryn Robson","Kathryn Robson,Rachel Mason",,2020-04-22,92,,,
53,2020,Night of the Kings (La Nuit des Rois) (2020),104,https://www.rottentomatoes.com/m/night_of_the_kings,0.96,0.57,"A young man is sent to ""La Maca,"" a prison in the middle of the Ivorian forest ruled by its inmates. As tradition goes with the rising of the red moon, he is designated by the Boss to be the new ""Roman"" and must tell a story to the other prisoners. Learning what fate awaits him, he begins to narrate the mystical life of the legendary outlaw named ""Zama King"" and has no choice but to make his story last until dawn.",R (Nudity|Language|Some Violent Material),",,Drama,,",French (France),Philippe Lacôte,"Delphine Jaquet,Ernest Konan,Yanick Létourneau",Philippe Lacôte,2021-02-26,2021-03-05,93,Neon,,
54,2020,Beats (2020),62,https://www.rottentomatoes.com/m/beats_2020,0.98,0.77,In 1994 two Scottish friends head out for a final night of partying before they go their separate ways.,,",,Drama,,,Comedy,,",English (United Kingdom),Brian Welsh,Camilla Bray,"Kieran Hurley,Brian Welsh",,2020-09-02,101,,,
55,2020,Vitalina Varela (2020),62,https://www.rottentomatoes.com/m/vitalina_varela,0.98,0.59,A woman moves from Cape Verde to her deceased husband's shack on the outskirts of Lisbon.,,",,Drama,,",Portuguese,Pedro Costa,Abel Ribeiro Chaves,"Pedro Costa,Vitalina Varela",2020-02-21,2020-09-18,124,Grasshopper Film,,
56,2020,Anything for Jackson (2020),63,https://www.rottentomatoes.com/m/anything_for_jackson,0.98,0.7,A sinister couple hatch a supernatural scheme to resurrect their dead grandson through a pregnant woman.,,",,Horror,,",English,Justin G. Dyck,"Keith Cooper,Justin G. Dyck,Christopher Giroux,Bill Marks",Keith Cooper,,2020-12-03,97,,,
57,2020,City Hall (2020),64,https://www.rottentomatoes.com/m/city_hall_2020,0.98,0.64,Filmmaker Frederick Wiseman examines the rich history of Boston City Hall.,,",,Documentary,,",English,Frederick Wiseman,,,,,275,,,
58,2020,The Painter and the Thief (2020),110,https://www.rottentomatoes.com/m/the_painter_and_the_thief,0.96,0.86,Czech artist Barbora Kysilkova develops an unlikely friendship with the man who stole two of her paintings.,,",,Documentary,,",English,Benjamin Ree,Ingvil Giske,,2020-05-22,2020-05-22,102,Neon,,
59,2020,Gunda (2020),89,https://www.rottentomatoes.com/m/gunda_2020,0.97,0.66,"Experiential cinema in its purest form, GUNDA chronicles the unfiltered lives of a mother pig, a flock of chickens, and a herd of cows with masterful intimacy. Using stark, transcendent black and white cinematography and the farm's ambient soundtrack, Master director Victor Kossakowsky invites the audience to slow down and experience life as his subjects do, taking in their world with a magical patience and an other worldly perspective. GUNDA asks us to meditate on the mystery of animal consciousness, and reckon with the role humanity plays in it.",G,",,Documentary,,",English,,"Joslyn Barnes,Susan Rockefeller",,2021-04-16,2021-04-16,93,NEON,,Flat (1.85:1)
60,2020,A Thousand Cuts (2020),40,https://www.rottentomatoes.com/m/a_thousand_cuts_2020,1.0,0.89,Journalist Maria Ressa risks her life and freedom as an outspoken critic of Filipino President Rodrigo Duterte's war on drugs.,,",,Documentary,,",English,Ramona S. Diaz,"Ramona S. Diaz,Chris Clements,Christopher Clements,Julie Goldman,Carolyn Hepburn,Leah Marino",Ramona S. Diaz,2020-08-07,2020-08-07,110,PBS Distribution,,
61,2020,The Half of It (2020),102,https://www.rottentomatoes.com/m/the_half_of_it,0.97,0.81,"A shy, introverted student helps the school jock woo a girl whom, secretly, they both want.",PG-13 (Brief Language|Teen Drinking),",,Lgbtq+,,,Romance,,",English,Alice Wu,"Blair Breard,Anthony Bregman,Alice Wu",Alice Wu,,2020-05-02,105,,,
62,2020,Mystify: Michael Hutchence (2020),41,https://www.rottentomatoes.com/m/mystify_michael_hutchence,1.0,0.94,"Archival footage, private home movies and intimate interviews offer insight into the extraordinary life and career of former INXS singer Michael Hutchence.",,",,Documentary,,,Music,,,Biography,,",English (Australia),Richard Lowenstein,"John Battsek,Andrew de Groot",Richard Lowenstein,,2020-01-21,108,,,
63,2020,Mayor (2020),42,https://www.rottentomatoes.com/m/mayor,1.0,0.9,"A look at the life of Musa Hadid, the charismatic mayor of Palestinian city Ramallah, who aspires to lead the city into the future.",,",,Documentary,,",English,,,,,2021-02-14,89,,,Scope (2.35:1)
64,2020,Coded Bias (2020),43,https://www.rottentomatoes.com/m/coded_bias,1.0,0.52,An exploration into the fallout of MIT Media Lab researcher Joy Buolamwini's discovery of racial bias in facial recognition algorithms.,,",,Documentary,,",English,Shalini Kantayya,,Shalini Kantayya,,2021-04-05,90,,,
65,2020,Rewind (2020),44,https://www.rottentomatoes.com/m/rewind_2020,1.0,0.95,"Digging through his father's home videos, a young man reconstructs the story of his boyhood and recalls the abuse he suffered through.",,",,Drama,,,Documentary,,",English,Sasha Neulinger,"Avela Grenier,Shasta Grenier,Robert Schneeweis",,,2020-06-12,86,,,
66,2020,Another Round (Druk) (2020),215,https://www.rottentomatoes.com/m/another_round,0.92,0.9,Four high school teachers consume alcohol on a daily basis to see how it affects their social and professional lives.,,",,Drama,,,Comedy,,",Danish,Thomas Vinterberg,"Kasper Dissing,Sisse Graum Jørgensen","Thomas Vinterberg,Tobias Lindholm",2020-12-04,2020-12-18,115,Samuel Goldwyn Films,,
67,2020,Coup 53 (2020),44,https://www.rottentomatoes.com/m/coup_53,1.0,0.9,"The story of Operation Ajax, the CIA/MI6 staged coup in 1953 in Iran that overthrew Prime Minister Mossadegh.",,",,Documentary,,",English,Taghi Amirani,"Taghi Amirani,Paul Zaentz",Taghi Amirani,2020-08-21,,118,Amirani Media,,
68,2020,A Secret Love (2020),45,https://www.rottentomatoes.com/m/a_secret_love,1.0,0.91,A former baseball player keeps her lesbian relationship a secret from her family for seven decades.,,",,Drama,,,Documentary,,,Lgbtq+,,",English,Chris Bolan,"Alexa L. Fogel,Brendan Mason,Ryan Murphy","Chris Bolan,Alexa L. Fogel",,2020-04-29,83,,,
69,2020,The Fight (2020),67,https://www.rottentomatoes.com/m/the_fight_2020,0.99,0.7,"At a defining moment in American history, a scrappy team of heroic ACLU lawyers battles for abortion rights, immigrant rights, LGBTQ rights and voting rights.",PG-13 (Thematic Material|Strong Language|Brief Violence),",,Documentary,,",English,"Elyse Steinberg,Eli B. Despres","Eli B. Despres,Peggy Drexler,Maya Seidler,Elyse Steinberg,Kerry Washington",,2020-07-31,2020-07-30,96,Magnolia Pictures,,
70,2020,House of Hummingbird (Beolsae) (2020),46,https://www.rottentomatoes.com/m/house_of_hummingbird,1.0,0.7,"In 1994 Seoul when the Seongsu Bridge collapses, 14-year-old Eunhee wanders the city and searches for love.",,",,Drama,,",Korean,Bora Kim,"Bora Kim,Zoe Sua Cho",Bora Kim,2020-06-26,2020-08-04,138,Well Go USA Entertainment,,
71,2020,Slay the Dragon (2020),49,https://www.rottentomatoes.com/m/slay_the_dragon,1.0,0.71,Activists work to rid gerrymandering from America's election process.,PG-13 (Brief Strong Language),",,Documentary,,",English,"Chris Durrance,Barak Goodman",Barak Goodman,,,2020-04-03,101,,,
72,2020,Extra Ordinary (2020),93,https://www.rottentomatoes.com/m/extra_ordinary,0.98,0.77,A woman who has supernatural abilities must save a possessed girl.,R (Some Horror Violence|Sexual Content|Language),",,Comedy,,,Fantasy,,",English (United Kingdom),"Michael Ahern,Enda Loughman","Katie Holly,Yvonne Donohoe,Mary McCarthy",Enda Loughman,2020-03-06,2020-01-13,94,Good Deed Entertainment,,
73,2020,On the Record (2020),73,https://www.rottentomatoes.com/m/on_the_record,0.99,0.82,Filmmakers Kirby Dick and Amy Ziering examine the sexual assault allegations against hip-hop mogul Russell Simmons.,,",,Documentary,,",English,"Kirby Dick,Amy Ziering","Jamie Rogers,Kirby Dick,Amy Herdy","Kirby Dick,Sara Newens,Amy Ziering",,2020-05-27,95,,,
74,2020,Driveways (2020),77,https://www.rottentomatoes.com/m/driveways,0.99,0.82,A lonely boy goes with his mother to help clean out his late aunt's house.,,",,Drama,,",English,Andrew Ahn,,"Hannah Bos,Paul Thureen",,2020-05-08,83,,,
75,2020,Corpus Christi (Boze cialo) (2020),99,https://www.rottentomatoes.com/m/corpus_christi_2020,0.98,0.93,"A reformed criminal is prevented from applying to the seminary after his release, so he dresses as a priest and ministers a small town parish.",,",,Drama,,",Polish,Jan Komasa,"Leszek Bodzak,Aneta Cebula-Hickinbotham,Krzysztof Rak",Mateusz Pacewicz,2020-02-24,2020-05-22,95,Film Movement,,Scope (2.35:1)
76,2020,The Truffle Hunters (2020),121,https://www.rottentomatoes.com/m/the_truffle_hunters,0.97,0.74,"A handful of men search for rare, expensive and delicious white Alba truffles deep in the forests of Piedmont, Italy.",PG-13 (Some Strong Language),",,Documentary,,",Italian,"Michael Dweck,Gregory Kershaw","Michael Dweck,Gregory Kershaw",,2021-03-05,2021-08-17,84,Sony Pictures Classics,,Flat (1.85:1)
77,2020,Athlete A (2020),56,https://www.rottentomatoes.com/m/athlete_a,1.0,0.93,Reporters from The Indianapolis Star expose Dr. Larry Nassar's sexual abuse of young gymnasts.,PG-13 (Descriptions of Sexual Abuse|Mature Thematic Content),",,Documentary,,",English,"Bonni Cohen,Jon Shenk","Serin Marshall,Jen Sey,Julie Parker Benello",,,2020-06-25,103,,,
78,2020,Relic (2020),231,https://www.rottentomatoes.com/m/relic,0.92,0.5,A woman links her mother's increasingly volatile behavior to an evil presence at their family's decaying country home.,R (Some Horror Violence|Language|Disturbing Images),",,Drama,,,Horror,,",English,Natalie Erika James,Jake Gyllenhaal,"Natalie Erika James,Christian White",2020-07-10,2020-06-26,89,IFC Midnight,,Scope (2.35:1)
79,2020,The Assistant (2020),235,https://www.rottentomatoes.com/m/the_assistant_2020,0.92,0.25,"Jane, a recent college graduate and aspiring film producer, just landed her dream job as a junior assistant to a powerful entertainment mogul. Her day is much like any other assistant -- making coffee, ordering lunch, arranging travel accommodations and taking phone messages. But as Jane follows her daily routine, she grows increasingly aware of the abuse that insidiously colors every aspect of her workday, an accumulation of degradations against which she decides to take a stand.",R (Some Language),",,Drama,,",English,Kitty Green,"James Schamus,Scott Macaulay,P. Jennifer Dana",Kitty Green,2020-01-31,2020-04-28,87,Bleecker Street Media,,
80,2020,Mucho Mucho Amor: The Legend of Walter Mercado (2020),63,https://www.rottentomatoes.com/m/mucho_mucho_amor,1.0,0.92,"Puerto Rican astrologer and psychic Walter Mercado discusses his life, career and post-fame seclusion.",,",,Documentary,,",English,"Cristina Constantini,Kareem Tabsch","Alex Fumero,Kareem Tabsch",,,2020-07-08,96,,,
81,2020,All In: The Fight for Democracy (2020),66,https://www.rottentomatoes.com/m/all_in_the_fight_for_democracy,1.0,0.71,Filmmakers Liz Garbus and Lisa Cortes examine the history of voter suppression and the activists who fight for the rights of U.S. citizens.,PG-13,",,Documentary,,",English,"Lisa Cortes,Liz Garbus","Stacey Abrams,Dan Cogan,Lisa Cortes,Liz Garbus",Jack Youngelson,2020-09-09,2020-09-18,102,Amazon Studios,,
82,2020,Welcome to Chechnya (2020),72,https://www.rottentomatoes.com/m/welcome_to_chechnya,1.0,0.86,"Activists risk their lives to confront Russian leader Ramzan Kadyrov and his government-directed campaign to detain, torture and execute LGBTQ Chechens.",,",,Lgbtq+,,,Documentary,,",Russian,David France,"David France,Alice Henty,Askold Kurov,Joy A. Tomchin",David France,,2020-07-03,107,,,
83,2020,Blow the Man Down (2020),120,https://www.rottentomatoes.com/m/blow_the_man_down,0.98,0.73,"Welcome to Easter Cove, a salty fishing village on the far reaches of Maine's rocky coast. Grieving the loss of their mother and facing an uncertain future, Mary Beth & Priscilla Connolly cover up a gruesome run-in with a dangerous man. To conceal their crime, the sisters must go deeper into Easter Cove's underbelly and uncover the town matriarchs' darkest secrets.",R (Language and Brief Drug Use|Some Language|Sexual Material),",,Drama,,,Comedy,,",English,"Bridget Savage Cole,Danielle Krudy","Drew P. Houpt,Alex Scharfman,Lucas Joaquin","Bridget Savage Cole,Danielle Krudy",,2020-03-17,90,,,
84,2020,The Vast of Night (2020),245,https://www.rottentomatoes.com/m/the_vast_of_night,0.92,0.66,"In the 1950s, two kids search for the source of a mysterious frequency that has descended on their town.",PG-13 (Brief Strong Language),",,Mystery & thriller,,,Fantasy,,",English,Andrew Patterson,"Adam Dietrich,Melissa Kirkendall,James Montague",James Montague,2020-05-15,2020-05-31,90,Amazon Studios,,Scope (2.35:1)
85,2020,The Personal History of David Copperfield (2020),245,https://www.rottentomatoes.com/m/the_personal_history_of_david_copperfield,0.92,0.54,The life of David Copperfield is chronicled from his youth into adulthood.,PG (Thematic Material|Brief Violence),",,Drama,,,Comedy,,",English (United Kingdom),Armando Iannucci,"Armando Iannucci,Kevin Loader",Simon Blackwell,2020-08-28,2020-11-17,119,Searchlight Pictures,,Scope (2.35:1)
86,2020,Time (2020),123,https://www.rottentomatoes.com/m/time_2020,0.98,0.51,"Entrepreneur Fox Rich spends the last two decades campaigning for the release of her husband, Rob G. Rich, who is serving a 60-year prison sentence for a robbery they both committed in the early 1990s in a moment of desperation.",PG-13 (Some Strong Language),",,Documentary,,",English,Garrett Bradley,"Garrett Bradley,Lauren Domino",,2020-10-09,2020-10-16,81,Amazon Studios,,
87,2020,Saint Frances (2020),102,https://www.rottentomatoes.com/m/saint_frances,0.99,0.77,"After an abortion, a deadbeat nanny finds friendship with the 6-year-old she's hired to watch.",,",,Drama,,,Comedy,,",English,Alex Thompson,James Choi,Kelly O'Sullivan,2020-02-28,2020-05-03,106,Oscilloscope Laboratories,,
88,2020,Totally Under Control (2020),102,https://www.rottentomatoes.com/m/totally_under_control,0.99,0.84,Public health officials discuss the U.S. government's response to the COVID-19 pandemic.,,",,Documentary,,",English,"Alex Gibney,Ophelia Harutyunyan,Suzanne Hillinger","Alex Gibney,Ophelia Harutyunyan,Suzanne Hillinger",Alex Gibney,,2020-10-13,123,,,
89,2020,The Forty-Year-Old Version (2020),130,https://www.rottentomatoes.com/m/the_forty_year_old_version,0.98,0.71,A struggling New York City playwright finds inspiration by reinventing herself as a rapper.,R (Some Drug Use|Brief Nudity|Sexual Content|Pervasive Language),",,Drama,,,Music,,,Comedy,,",English,Radha Blank,,Radha Blank,,2020-10-09,123,,,Scope (2.35:1)
90,2020,Onward (2020),337,https://www.rottentomatoes.com/m/onward,0.88,0.95,"Teenage elf brothers Ian and Barley embark on a magical quest to spend one more day with their late father. Like any good adventure, their journey is filled with cryptic maps, impossible obstacles and unimaginable discoveries. But when dear Mom finds out her sons are missing, she teams up with the legendary manticore to bring her beloved boys back home.",PG (Some Mild Thematic Elements|Action/Peril),",,Kids & family,,,Animation,,,Adventure,,,Comedy,,,Fantasy,,",English,Dan Scanlon,Kori Rae,"Dan Scanlon,Jason Headley,Keith Bunin",2020-03-06,2020-03-06,103,Walt Disney,"Dolby Atmos, DTS",Scope (2.35:1)
91,2020,David Byrne's American Utopia (2020),135,https://www.rottentomatoes.com/m/david_byrnes_american_utopia,0.98,0.85,"Singer David Byrne and a group of international musicians perform songs from the hit Broadway musical ""American Utopia.""",,",,Musical,,",English,Spike Lee,,,,2020-10-17,135,,,
92,2020,Possessor: Uncut (2020),218,https://www.rottentomatoes.com/m/possessor_uncut,0.94,0.59,"Tasya Vos, an elite, corporate assassin, takes control of other people's bodies using brain-implant technology to execute high-profile targets.",R (Strong Sexual Content|Strong Bloody Violence|Brief Drug Use|Language|Some Graphic Nudity),",,Horror,,,Mystery & thriller,,,Sci-fi,,",English,Brandon Cronenberg,"Fraser Ash,Niv Fichman,Kevin Krikst,Andrew Starke",Brandon Cronenberg,,2020-12-08,102,,,
93,2020,The Trial of the Chicago 7 (2020),331,https://www.rottentomatoes.com/m/the_trial_of_the_chicago_7,0.89,0.9,"In 1969, seven people were charged by the federal government with conspiracy and more, arising from the protests at the 1968 Democratic National Convention in Chicago.",R (Drug Use|Bloody Images|Language Throughout|Some Violence),",,Drama,,,History,,",English,Aaron Sorkin,"Stuart M. Besser,Matt Jackson,Tyler Thompson,Marc Platt",Aaron Sorkin,2020-10-16,2020-10-16,129,Netflix,Dolby Digital,Scope (2.35:1)
94,2020,Collective (Colectiv) (2020),130,https://www.rottentomatoes.com/m/collective_2020,0.99,0.89,"Directed by Alexander Nanau (TOTO AND HIS SISTERS), COLLECTIVE follows a heroic team of journalists as they uncover shocking, widespread corruption. After a deadly nightclub fire, the mysterious death of the owner of a powerful pharmaceutical firm, and the quiet resignation of a health minister—seemingly unrelated events, all within weeks of each other--the team of intrepid reporters exposes a much larger, much more explosive political scandal. COLLECTIVE is a fast-paced, real-time detective story about truth, accountability, and the value of an independent press in partisan times.",,",,Documentary,,",Romanian,Alexander Nanau,"Hanka Kastelicová,Alexander Nanau,Bianca Oana","Alexander Nanau,Antoaneta Opris",2020-11-20,2020-11-20,109,Magnolia Pictures,,Flat (1.85:1)
95,2020,76 Days (2020),98,https://www.rottentomatoes.com/m/76_days,1.0,0.85,"Health care workers and patients combat the COVID-19 outbreak during a lockdown in Wuhan, China.",,",,Documentary,,",Chinese,"Hao Wu,Weixi Chen","Jean Tsien,Hao Wu",Hao Wu,2021-01-23,2021-03-05,93,MTV Documentary Films,,
96,2020,His House (2020),118,https://www.rottentomatoes.com/m/his_house,1.0,0.74,"A refugee couple makes a harrowing escape from war-torn South Sudan, but then they struggle to adjust to their new life in an English town that has an evil lurking beneath the surface.",,",,Horror,,,Mystery & thriller,,",English (United Kingdom),Remi Weekes,Aidan Elliott,Remi Weekes,,2020-10-30,93,,,Scope (2.35:1)
97,2020,Miss Juneteenth (2020),144,https://www.rottentomatoes.com/m/miss_juneteenth,0.99,0.57,"A former beauty queen and single mom prepares her rebellious teenage daughter for the ""Miss Juneteenth"" pageant.",,",,Drama,,",English,Channing Godfrey Peoples,"Neil Creque Williams,James M. Johnston,Jeanie Igoe,Toby Halbrooks,Tim Headington,Theresa Steele Page",Channing Godfrey Peoples,2020-06-19,2020-06-19,103,Vertical Entertainment,,Scope (2.35:1)
98,2020,First Cow (2020),209,https://www.rottentomatoes.com/m/first_cow,0.96,0.63,"Two travelers, on the run from a band of vengeful hunters in the 1820s Northwest, dream of striking it rich -- but their tenuous plan to make their fortune on the frontier comes to rely on the secret use of a landowner's prized dairy cow.",PG-13 (Brief Strong Language),",,Drama,,,Western,,",English,Kelly Reichardt,"Neil Kopp,Vincent Savino,Anish Savjani","Jonathan Raymond,Kelly Reichardt",2020-03-06,2020-07-10,122,A24,,
99,2020,Crip Camp: A Disability Revolution (2020),99,https://www.rottentomatoes.com/m/crip_camp_a_disability_revolution,1.0,0.91,A groundbreaking summer camp galvanizes teens who have disabilities.,R (Sexual References|Some Language),",,Documentary,,",English,"James Lebrecht,Nicole Newnham","James Lebrecht,Sara Bolder,Nicole Newnham","James Lebrecht,Nicole Newnham",,2020-03-26,107,,,
